11166244,myntra,Men-Shirts
11166368,myntra,Men-Shirts
9909879,myntra,Men-Shirts
9911379,myntra,Men-Shirts
8198957,myntra,Men-Shirts
9911469,myntra,Men-Shirts
11166130,myntra,Men-Shirts
11166446,myntra,Men-Shirts
9909405,myntra,Men-Shirts
8199041,myntra,Men-Shirts
9909381,myntra,Men-Shirts
9909685,myntra,Men-Shirts
11166240,myntra,Men-Shirts
8198905,myntra,Men-Shirts
9909555,myntra,Men-Shirts
9909891,myntra,Men-Shirts
9911451,myntra,Men-Shirts
11166416,myntra,Men-Shirts
11166336,myntra,Men-Shirts
8198855,myntra,Men-Shirts
9911365,myntra,Men-Shirts
8198861,myntra,Men-Shirts
8198889,myntra,Men-Shirts
8198917,myntra,Men-Shirts
11166358,myntra,Men-Shirts
11166104,myntra,Men-Shirts
9909899,myntra,Men-Shirts
9982799,myntra,Men-Shirts
9982789,myntra,Men-Shirts
11166224,myntra,Men-Shirts
460303903_red,ajio,Men-Shirts
460399161_red,ajio,Men-Shirts
460303873_black,ajio,Men-Shirts
460228298_black,ajio,Men-Shirts
460228314_white,ajio,Men-Shirts
460228317_blue,ajio,Men-Shirts
460303913_white,ajio,Men-Shirts
460545396_red,ajio,Men-Shirts
460399137_red,ajio,Men-Shirts
460399084_green,ajio,Men-Shirts
460545392_multi,ajio,Men-Shirts
460303897_red,ajio,Men-Shirts
460545397_green,ajio,Men-Shirts
460545400_blue,ajio,Men-Shirts
460399129_green,ajio,Men-Shirts
460399130_multi,ajio,Men-Shirts
460399133_green,ajio,Men-Shirts
460399135_white,ajio,Men-Shirts
460303898_black,ajio,Men-Shirts
460545391_blue,ajio,Men-Shirts