timeStamp,elapsed,label,responseCode,responseMessage,threadName,dataType,success,failureMessage,bytes,sentBytes,grpThreads,allThreads,URL,Latency,IdleTime,Connect
1595502962078,7350,request-${days} days,200,OK,Graph - Time vs Price Ranges - Weekly(Users) - 90 days 1-2,text,true,,40192,5207,5,5,https://vortaapi.myntrainfo.com/api/mi/graph?timeout=60000,7090,0,1493
1595502961979,7885,request-${days} days,200,OK,Graph - Time vs Price Ranges - Weekly(Users) - 90 days 1-1,text,true,,40192,5207,4,4,https://vortaapi.myntrainfo.com/api/mi/graph?timeout=60000,7408,0,1592
1595502962668,7517,request-${days} days,200,OK,Graph - Time vs Price Ranges - Weekly(Users) - 90 days 1-5,text,true,,40192,5207,3,3,https://vortaapi.myntrainfo.com/api/mi/graph?timeout=60000,7010,0,903
1595502962273,8240,request-${days} days,200,OK,Graph - Time vs Price Ranges - Weekly(Users) - 90 days 1-3,text,true,,40192,5207,2,2,https://vortaapi.myntrainfo.com/api/mi/graph?timeout=60000,6892,0,1298
1595502962468,8502,request-${days} days,200,OK,Graph - Time vs Price Ranges - Weekly(Users) - 90 days 1-4,text,true,,40192,5207,1,1,https://vortaapi.myntrainfo.com/api/mi/graph?timeout=60000,7153,0,3382
