timeStamp,elapsed,label,responseCode,responseMessage,threadName,dataType,success,failureMessage,bytes,sentBytes,grpThreads,allThreads,URL,Latency,IdleTime,Connect
1596732808050,1078,req,200,OK,MultiUser 1-46,text,true,,23644,5158,100,100,https://vortaapi.myntrainfo.com/api/mi/graph,1070,0,974
1596732808042,1085,req,200,OK,MultiUser 1-83,text,true,,23644,5158,100,100,https://vortaapi.myntrainfo.com/api/mi/graph,1084,0,979
1596732808033,1100,req,200,OK,MultiUser 1-61,text,true,,23644,5158,99,99,https://vortaapi.myntrainfo.com/api/mi/graph,1098,0,998
1596732808022,1112,req,200,OK,MultiUser 1-23,text,true,,23644,5158,98,98,https://vortaapi.myntrainfo.com/api/mi/graph,1110,0,994
1596732808017,1122,req,200,OK,MultiUser 1-36,text,true,,23644,5158,97,97,https://vortaapi.myntrainfo.com/api/mi/graph,1119,0,1006
1596732808050,1089,req,200,OK,MultiUser 1-47,text,true,,23644,5158,97,97,https://vortaapi.myntrainfo.com/api/mi/graph,1086,0,968
1596732808018,1121,req,200,OK,MultiUser 1-10,text,true,,23644,5158,97,97,https://vortaapi.myntrainfo.com/api/mi/graph,1119,0,1003
1596732808024,1116,req,200,OK,MultiUser 1-45,text,true,,23644,5158,95,95,https://vortaapi.myntrainfo.com/api/mi/graph,1114,0,1001
1596732808010,1118,req,200,OK,MultiUser 1-7,text,true,,23644,5158,100,100,https://vortaapi.myntrainfo.com/api/mi/graph,1110,0,1003
1596732808024,1104,req,200,OK,MultiUser 1-69,text,true,,23644,5158,100,100,https://vortaapi.myntrainfo.com/api/mi/graph,1097,0,662
1596732808060,1083,req,200,OK,MultiUser 1-55,text,true,,23644,5158,92,92,https://vortaapi.myntrainfo.com/api/mi/graph,1081,0,697
1596732808019,1125,req,200,OK,MultiUser 1-70,text,true,,23644,5158,91,91,https://vortaapi.myntrainfo.com/api/mi/graph,1100,0,918
1596732808049,1079,req,200,OK,MultiUser 1-28,text,true,,23644,5158,100,100,https://vortaapi.myntrainfo.com/api/mi/graph,1073,0,716
1596732808023,1122,req,200,OK,MultiUser 1-1,text,true,,23644,5158,88,88,https://vortaapi.myntrainfo.com/api/mi/graph,1093,0,995
1596732808048,1098,req,200,OK,MultiUser 1-3,text,true,,23644,5158,88,88,https://vortaapi.myntrainfo.com/api/mi/graph,1096,0,695
1596732808074,1072,req,200,OK,MultiUser 1-77,text,true,,23644,5158,87,87,https://vortaapi.myntrainfo.com/api/mi/graph,1041,0,927
1596732808013,1135,req,200,OK,MultiUser 1-64,text,true,,23644,5158,85,85,https://vortaapi.myntrainfo.com/api/mi/graph,1134,0,725
1596732808030,1122,req,200,OK,MultiUser 1-99,text,true,,23644,5158,84,84,https://vortaapi.myntrainfo.com/api/mi/graph,1120,0,897
1596732808017,1135,req,200,OK,MultiUser 1-85,text,true,,23644,5158,84,84,https://vortaapi.myntrainfo.com/api/mi/graph,1133,0,952
1596732808013,1140,req,200,OK,MultiUser 1-90,text,true,,23644,5158,84,84,https://vortaapi.myntrainfo.com/api/mi/graph,1137,0,1017
1596732808026,1128,req,200,OK,MultiUser 1-20,text,true,,23644,5158,81,81,https://vortaapi.myntrainfo.com/api/mi/graph,1068,0,965
1596732808016,1138,req,200,OK,MultiUser 1-5,text,true,,23644,5158,81,81,https://vortaapi.myntrainfo.com/api/mi/graph,1137,0,963
1596732808068,1088,req,200,OK,MultiUser 1-60,text,true,,23644,5158,79,79,https://vortaapi.myntrainfo.com/api/mi/graph,1086,0,643
1596732808046,1112,req,200,OK,MultiUser 1-81,text,true,,23644,5158,78,78,https://vortaapi.myntrainfo.com/api/mi/graph,1109,0,682
1596732808033,1125,req,200,OK,MultiUser 1-68,text,true,,23644,5158,78,78,https://vortaapi.myntrainfo.com/api/mi/graph,1122,0,662
1596732808040,1119,req,200,OK,MultiUser 1-89,text,true,,23644,5158,78,78,https://vortaapi.myntrainfo.com/api/mi/graph,1117,0,984
1596732808082,1078,req,200,OK,MultiUser 1-57,text,true,,23644,5158,76,76,https://vortaapi.myntrainfo.com/api/mi/graph,1032,0,759
1596732808148,1013,req,200,OK,MultiUser 1-34,text,true,,23644,5158,75,75,https://vortaapi.myntrainfo.com/api/mi/graph,945,0,818
1596732808056,1105,req,200,OK,MultiUser 1-51,text,true,,23644,5158,75,75,https://vortaapi.myntrainfo.com/api/mi/graph,1102,0,640
1596732808014,1149,req,200,OK,MultiUser 1-66,text,true,,23644,5158,73,73,https://vortaapi.myntrainfo.com/api/mi/graph,1147,0,1029
1596732808022,1143,req,200,OK,MultiUser 1-25,text,true,,23644,5158,72,72,https://vortaapi.myntrainfo.com/api/mi/graph,1140,0,1022
1596732808012,1156,req,200,OK,MultiUser 1-74,text,true,,23644,5158,71,71,https://vortaapi.myntrainfo.com/api/mi/graph,1154,0,1018
1596732808029,1139,req,200,OK,MultiUser 1-24,text,true,,23644,5158,71,71,https://vortaapi.myntrainfo.com/api/mi/graph,1137,0,1005
1596732808025,1144,req,200,OK,MultiUser 1-86,text,true,,23644,5158,70,70,https://vortaapi.myntrainfo.com/api/mi/graph,1087,0,961
1596732808075,1051,req,200,OK,MultiUser 1-75,text,true,,23644,5158,100,100,https://vortaapi.myntrainfo.com/api/mi/graph,1017,0,658
1596732808042,1129,req,200,OK,MultiUser 1-29,text,true,,23644,5158,68,68,https://vortaapi.myntrainfo.com/api/mi/graph,1127,0,864
1596732808016,1158,req,200,OK,MultiUser 1-40,text,true,,23644,5158,66,66,https://vortaapi.myntrainfo.com/api/mi/graph,1155,0,1026
1596732808151,1023,req,200,OK,MultiUser 1-33,text,true,,23644,5158,65,65,https://vortaapi.myntrainfo.com/api/mi/graph,1021,0,572
1596732808029,1148,req,200,OK,MultiUser 1-16,text,true,,23644,5158,64,64,https://vortaapi.myntrainfo.com/api/mi/graph,1146,0,1003
1596732808014,1164,req,200,OK,MultiUser 1-17,text,true,,23644,5158,64,64,https://vortaapi.myntrainfo.com/api/mi/graph,1162,0,729
1596732808092,1086,req,200,OK,MultiUser 1-59,text,true,,23644,5158,63,63,https://vortaapi.myntrainfo.com/api/mi/graph,1017,0,655
1596732808031,1148,req,200,OK,MultiUser 1-95,text,true,,23644,5158,61,61,https://vortaapi.myntrainfo.com/api/mi/graph,1147,0,1018
1596732808152,1027,req,200,OK,MultiUser 1-93,text,true,,23644,5158,61,61,https://vortaapi.myntrainfo.com/api/mi/graph,958,0,860
1596732808012,1168,req,200,OK,MultiUser 1-73,text,true,,23644,5158,59,59,https://vortaapi.myntrainfo.com/api/mi/graph,1094,0,767
1596732808076,1105,req,200,OK,MultiUser 1-53,text,true,,23644,5158,58,58,https://vortaapi.myntrainfo.com/api/mi/graph,1103,0,783
1596732808073,1109,req,200,OK,MultiUser 1-78,text,true,,23644,5158,56,56,https://vortaapi.myntrainfo.com/api/mi/graph,1033,0,682
1596732808057,1126,req,200,OK,MultiUser 1-43,text,true,,23644,5158,55,55,https://vortaapi.myntrainfo.com/api/mi/graph,1125,0,658
1596732808075,1108,req,200,OK,MultiUser 1-76,text,true,,23644,5158,55,55,https://vortaapi.myntrainfo.com/api/mi/graph,1029,0,757
1596732808019,1165,req,200,OK,MultiUser 1-71,text,true,,23644,5158,52,52,https://vortaapi.myntrainfo.com/api/mi/graph,1084,0,958
1596732808081,1104,req,200,OK,MultiUser 1-9,text,true,,23644,5158,52,52,https://vortaapi.myntrainfo.com/api/mi/graph,1103,0,603
1596732808148,1037,req,200,OK,MultiUser 1-18,text,true,,23644,5158,51,51,https://vortaapi.myntrainfo.com/api/mi/graph,955,0,859
1596732808051,1135,req,200,OK,MultiUser 1-92,text,true,,23644,5158,50,50,https://vortaapi.myntrainfo.com/api/mi/graph,1134,0,668
1596732808060,1126,req,200,OK,MultiUser 1-12,text,true,,23644,5158,49,49,https://vortaapi.myntrainfo.com/api/mi/graph,1042,0,647
1596732808072,1115,req,200,OK,MultiUser 1-54,text,true,,23644,5158,47,47,https://vortaapi.myntrainfo.com/api/mi/graph,1029,0,697
1596732808055,1133,req,200,OK,MultiUser 1-50,text,true,,23644,5158,46,46,https://vortaapi.myntrainfo.com/api/mi/graph,1045,0,954
1596732808067,1122,req,200,OK,MultiUser 1-79,text,true,,23644,5158,46,46,https://vortaapi.myntrainfo.com/api/mi/graph,1120,0,650
1596732808011,1178,req,200,OK,MultiUser 1-72,text,true,,23644,5158,46,46,https://vortaapi.myntrainfo.com/api/mi/graph,1176,0,693
1596732808052,1137,req,200,OK,MultiUser 1-49,text,true,,23644,5158,44,44,https://vortaapi.myntrainfo.com/api/mi/graph,1045,0,701
1596732808031,1160,req,200,OK,MultiUser 1-67,text,true,,23644,5158,43,43,https://vortaapi.myntrainfo.com/api/mi/graph,1159,0,669
1596732808018,1176,req,200,OK,MultiUser 1-41,text,true,,23644,5158,41,41,https://vortaapi.myntrainfo.com/api/mi/graph,1174,0,1015
1596732808084,1110,req,200,OK,MultiUser 1-37,text,true,,23644,5158,41,41,https://vortaapi.myntrainfo.com/api/mi/graph,1108,0,649
1596732808079,1116,req,200,OK,MultiUser 1-13,text,true,,23644,5158,39,39,https://vortaapi.myntrainfo.com/api/mi/graph,1115,0,651
1596732808030,1152,req,200,OK,MultiUser 1-98,text,true,,23644,5158,38,38,https://vortaapi.myntrainfo.com/api/mi/graph,1139,0,1009
1596732808017,1190,req,200,OK,MultiUser 1-42,text,true,,23644,5158,37,37,https://vortaapi.myntrainfo.com/api/mi/graph,1189,0,1026
1596732808151,1062,req,200,OK,MultiUser 1-62,text,true,,23644,5158,36,36,https://vortaapi.myntrainfo.com/api/mi/graph,1060,0,885
1596732808035,1178,req,200,OK,MultiUser 1-8,text,true,,23644,5158,36,36,https://vortaapi.myntrainfo.com/api/mi/graph,1176,0,1014
1596732808041,1174,req,200,OK,MultiUser 1-88,text,true,,23644,5158,35,35,https://vortaapi.myntrainfo.com/api/mi/graph,1173,0,1005
1596732808036,1182,req,200,OK,MultiUser 1-94,text,true,,23644,5158,34,34,https://vortaapi.myntrainfo.com/api/mi/graph,1180,0,992
1596732808059,1166,req,200,OK,MultiUser 1-52,text,true,,23644,5158,33,33,https://vortaapi.myntrainfo.com/api/mi/graph,1163,0,992
1596732808088,1137,req,200,OK,MultiUser 1-38,text,true,,23644,5158,33,33,https://vortaapi.myntrainfo.com/api/mi/graph,1135,0,948
1596732808149,1078,req,200,OK,MultiUser 1-39,text,true,,23644,5158,31,31,https://vortaapi.myntrainfo.com/api/mi/graph,1076,0,914
1596732808051,1181,req,200,OK,MultiUser 1-48,text,true,,23644,5158,30,30,https://vortaapi.myntrainfo.com/api/mi/graph,1178,0,985
1596732808042,1190,req,200,OK,MultiUser 1-84,text,true,,23644,5158,30,30,https://vortaapi.myntrainfo.com/api/mi/graph,1188,0,1022
1596732808148,1084,req,200,OK,MultiUser 1-27,text,true,,23644,5158,29,29,https://vortaapi.myntrainfo.com/api/mi/graph,1082,0,909
1596732808043,1193,req,200,OK,MultiUser 1-82,text,true,,23644,5158,28,28,https://vortaapi.myntrainfo.com/api/mi/graph,1190,0,994
1596732808032,1208,req,200,OK,MultiUser 1-22,text,true,,23644,5158,27,27,https://vortaapi.myntrainfo.com/api/mi/graph,1205,0,1027
1596732808152,1088,req,200,OK,MultiUser 1-63,text,true,,23644,5158,27,27,https://vortaapi.myntrainfo.com/api/mi/graph,1085,0,881
1596732808077,1163,req,200,OK,MultiUser 1-56,text,true,,23644,5158,27,27,https://vortaapi.myntrainfo.com/api/mi/graph,1160,0,977
1596732808150,1091,req,200,OK,MultiUser 1-2,text,true,,23644,5158,26,26,https://vortaapi.myntrainfo.com/api/mi/graph,1089,0,877
1596732808025,1221,req,200,OK,MultiUser 1-100,text,true,,23644,5158,25,25,https://vortaapi.myntrainfo.com/api/mi/graph,1219,0,1044
1596732808027,1220,req,200,OK,MultiUser 1-96,text,true,,23644,5158,24,24,https://vortaapi.myntrainfo.com/api/mi/graph,1218,0,1026
1596732808039,1208,req,200,OK,MultiUser 1-11,text,true,,23644,5158,24,24,https://vortaapi.myntrainfo.com/api/mi/graph,1206,0,999
1596732808027,1220,req,200,OK,MultiUser 1-19,text,true,,23644,5158,24,24,https://vortaapi.myntrainfo.com/api/mi/graph,1218,0,1029
1596732808039,1213,req,200,OK,MultiUser 1-44,text,true,,23644,5158,22,22,https://vortaapi.myntrainfo.com/api/mi/graph,1210,0,1005
1596732808021,1232,req,200,OK,MultiUser 1-15,text,true,,23644,5158,21,21,https://vortaapi.myntrainfo.com/api/mi/graph,1230,0,1030
1596732808046,1208,req,200,OK,MultiUser 1-80,text,true,,23644,5158,20,20,https://vortaapi.myntrainfo.com/api/mi/graph,1204,0,1025
1596732808151,1103,req,200,OK,MultiUser 1-6,text,true,,23644,5158,20,20,https://vortaapi.myntrainfo.com/api/mi/graph,1101,0,900
1596732808017,1241,req,200,OK,MultiUser 1-31,text,true,,23644,5158,18,18,https://vortaapi.myntrainfo.com/api/mi/graph,1239,0,1038
1596732808038,1220,req,200,OK,MultiUser 1-21,text,true,,23644,5158,18,18,https://vortaapi.myntrainfo.com/api/mi/graph,1218,0,1017
1596732808042,1218,req,200,OK,MultiUser 1-87,text,true,,23644,5158,16,16,https://vortaapi.myntrainfo.com/api/mi/graph,1216,0,1009
1596732808015,1246,req,200,OK,MultiUser 1-65,text,true,,23644,5158,15,15,https://vortaapi.myntrainfo.com/api/mi/graph,1244,0,1050
1596732808021,1243,req,200,OK,MultiUser 1-32,text,true,,23644,5158,14,14,https://vortaapi.myntrainfo.com/api/mi/graph,1241,0,1020
1596732808028,1237,req,200,OK,MultiUser 1-97,text,true,,23644,5158,13,13,https://vortaapi.myntrainfo.com/api/mi/graph,1235,0,1039
1596732808026,1242,req,200,OK,MultiUser 1-35,text,true,,23644,5158,12,12,https://vortaapi.myntrainfo.com/api/mi/graph,1239,0,1021
1596732808040,1244,req,200,OK,MultiUser 1-91,text,true,,23644,5158,11,11,https://vortaapi.myntrainfo.com/api/mi/graph,1243,0,1022
1596732808089,1196,req,200,OK,MultiUser 1-58,text,true,,23644,5158,11,11,https://vortaapi.myntrainfo.com/api/mi/graph,1179,0,964
1596732808037,1250,req,200,OK,MultiUser 1-4,text,true,,23644,5158,11,11,https://vortaapi.myntrainfo.com/api/mi/graph,1249,0,1021
1596732808037,1255,req,200,OK,MultiUser 1-14,text,true,,23644,5158,11,11,https://vortaapi.myntrainfo.com/api/mi/graph,1254,0,1024
1596732808018,1280,req,200,OK,MultiUser 1-30,text,true,,23644,5158,2,2,https://vortaapi.myntrainfo.com/api/mi/graph,1279,0,968
1596732808020,1279,req,200,OK,MultiUser 1-26,text,true,,23644,5158,2,2,https://vortaapi.myntrainfo.com/api/mi/graph,1277,0,1034
