"2020-07-13T00:00:00.000Z","2020-07-27T00:00:00.000Z",15
"2020-06-28T00:00:00.000Z","2020-07-27T00:00:00.000Z",30
"2020-06-13T00:00:00.000Z","2020-07-27T00:00:00.000Z",45
"2020-04-01T00:00:00.000Z","2020-06-30T00:00:00.000Z",90
"2020-01-01T00:00:00.000Z","2020-06-30T00:00:00.000Z",180