timeStamp,elapsed,label,responseCode,responseMessage,threadName,dataType,success,failureMessage,bytes,sentBytes,grpThreads,allThreads,URL,Latency,IdleTime,Connect
1596020975736,210,request-11558840-45 days,200,OK,Load product revenue 1-3,text,true,,1134,979,4,4,https://vortaapi.myntrainfo.com/api/mi/product/history/transaction,206,0,154
1596020975483,465,request-11160166-180 days,200,OK,Load product revenue 1-1,text,true,,2147,979,4,4,https://vortaapi.myntrainfo.com/api/mi/product/history/transaction,465,0,408
1596020975542,408,request-11499958-90 days,200,OK,Load product revenue 1-2,text,true,,1490,979,4,4,https://vortaapi.myntrainfo.com/api/mi/product/history/transaction,408,0,344
1596020975935,63,request-11412344-30 days,200,OK,Load product revenue 1-4,text,true,,1033,979,1,1,https://vortaapi.myntrainfo.com/api/mi/product/history/transaction,63,0,26
1596020976132,64,request-11412352-15 days,200,OK,Load product revenue 1-5,text,true,,880,979,1,1,https://vortaapi.myntrainfo.com/api/mi/product/history/transaction,64,0,20
