timeStamp,elapsed,label,responseCode,responseMessage,threadName,dataType,success,failureMessage,bytes,sentBytes,grpThreads,allThreads,URL,Latency,IdleTime,Connect
1595659347058,496,request-Discount Range Wise Distribution of Products Across Marketplaces,200,OK,Load filled widget tempalte 1-2,text,true,,128457,796,4,4,https://vortaapi.myntrainfo.com/api/mi/widget/5ec65b342e15ee1710bae268/slot/2,441,0,368
1595659347026,553,request-Price Range Wise Distribution of Products Across Marketplaces,200,OK,Load filled widget tempalte 1-1,text,true,,131219,796,4,4,https://vortaapi.myntrainfo.com/api/mi/widget/5ec65b342e15ee1710bae268/slot/1,494,0,400
1595659347460,120,request-Price Range Wise Distribution of Products Across Brand,200,OK,Load filled widget tempalte 1-4,text,true,,132843,796,4,4,https://vortaapi.myntrainfo.com/api/mi/widget/5ec65b342e15ee1710bae268/slot/4,84,0,26
1595659347263,318,request-Price Range Wise Stock Status,200,OK,Load filled widget tempalte 1-3,text,true,,128646,796,4,4,https://vortaapi.myntrainfo.com/api/mi/widget/5ec65b342e15ee1710bae268/slot/3,236,0,163
1595659347581,92,request-Discount Range Wise Distribution of Product Attributes,200,OK,Load filled widget tempalte 1-4,text,true,,130197,796,5,5,https://vortaapi.myntrainfo.com/api/mi/widget/5ec65b342e15ee1710bae268/slot/7,86,0,34
1595659347581,92,request-Discount Range Wise Stock Status,200,OK,Load filled widget tempalte 1-1,text,true,,128693,796,5,5,https://vortaapi.myntrainfo.com/api/mi/widget/5ec65b342e15ee1710bae268/slot/6,87,0,33
1595659347573,103,request-Price Range Wise Stock Status,200,OK,Load filled widget tempalte 1-2,text,true,,130963,796,5,5,https://vortaapi.myntrainfo.com/api/mi/widget/5ec65b342e15ee1710bae268/slot/5,98,0,48
1595659347583,98,request-Price Range Wise Distribution of Product Attributes,200,OK,Load filled widget tempalte 1-3,text,true,,130064,796,5,5,https://vortaapi.myntrainfo.com/api/mi/widget/5ec65b342e15ee1710bae268/slot/8,93,0,43
1595659347654,86,request-Stock Status Wise Distribution of Products Across Marketplaces,200,OK,Load filled widget tempalte 1-5,text,true,,127871,796,5,5,https://vortaapi.myntrainfo.com/api/mi/widget/5ec65b342e15ee1710bae268/slot/9,80,0,31
1595659347674,75,request-Discount Range Wise Stock Status,200,OK,Load filled widget tempalte 1-4,text,true,,129873,797,5,5,https://vortaapi.myntrainfo.com/api/mi/widget/5ec65b342e15ee1710bae268/slot/10,70,0,21
1595659347675,90,request-Price Range Wise Distribution of Products Across Marketplaces,200,OK,Load filled widget tempalte 1-1,text,true,,131875,796,5,5,https://vortaapi.myntrainfo.com/api/mi/widget/5ec65b342e15ee1710bae268/slot/1,85,0,30
1595659347677,89,request-Discount Range Wise Distribution of Products Across Marketplaces,200,OK,Load filled widget tempalte 1-2,text,true,,128457,796,5,5,https://vortaapi.myntrainfo.com/api/mi/widget/5ec65b342e15ee1710bae268/slot/2,85,0,28
1595659347682,85,request-Price Range Wise Stock Status,200,OK,Load filled widget tempalte 1-3,text,true,,128646,796,5,5,https://vortaapi.myntrainfo.com/api/mi/widget/5ec65b342e15ee1710bae268/slot/3,79,0,22
1595659347742,78,request-Price Range Wise Distribution of Products Across Brand,200,OK,Load filled widget tempalte 1-5,text,true,,132843,796,5,5,https://vortaapi.myntrainfo.com/api/mi/widget/5ec65b342e15ee1710bae268/slot/4,75,0,27
1595659347750,90,request-Price Range Wise Stock Status,200,OK,Load filled widget tempalte 1-4,text,true,,130963,796,5,5,https://vortaapi.myntrainfo.com/api/mi/widget/5ec65b342e15ee1710bae268/slot/5,87,0,40
1595659347768,88,request-Discount Range Wise Distribution of Product Attributes,200,OK,Load filled widget tempalte 1-3,text,true,,129541,796,5,5,https://vortaapi.myntrainfo.com/api/mi/widget/5ec65b342e15ee1710bae268/slot/7,82,0,22
1595659347766,91,request-Discount Range Wise Stock Status,200,OK,Load filled widget tempalte 1-1,text,true,,129349,796,5,5,https://vortaapi.myntrainfo.com/api/mi/widget/5ec65b342e15ee1710bae268/slot/6,86,0,29
1595659347770,101,request-Price Range Wise Distribution of Product Attributes,200,OK,Load filled widget tempalte 1-2,text,true,,130064,796,6,6,https://vortaapi.myntrainfo.com/api/mi/widget/5ec65b342e15ee1710bae268/slot/8,88,0,21
1595659347821,86,request-Stock Status Wise Distribution of Products Across Marketplaces,200,OK,Load filled widget tempalte 1-5,text,true,,128527,796,6,6,https://vortaapi.myntrainfo.com/api/mi/widget/5ec65b342e15ee1710bae268/slot/9,81,0,29
1595659347842,68,request-Discount Range Wise Stock Status,200,OK,Load filled widget tempalte 1-4,text,true,,129217,797,6,6,https://vortaapi.myntrainfo.com/api/mi/widget/5ec65b342e15ee1710bae268/slot/10,63,0,14
1595659347858,84,request-Discount Range Wise Distribution of Products Across Marketplaces,200,OK,Load filled widget tempalte 1-1,text,true,,128457,796,5,5,https://vortaapi.myntrainfo.com/api/mi/widget/5ec65b342e15ee1710bae268/slot/2,79,0,22
1595659347857,91,request-Price Range Wise Distribution of Products Across Marketplaces,200,OK,Load filled widget tempalte 1-3,text,true,,131875,796,4,4,https://vortaapi.myntrainfo.com/api/mi/widget/5ec65b342e15ee1710bae268/slot/1,86,0,32
1595659347860,94,request-Price Range Wise Stock Status,200,OK,Load filled widget tempalte 1-6,text,true,,128646,796,3,3,https://vortaapi.myntrainfo.com/api/mi/widget/5ec65b342e15ee1710bae268/slot/3,89,0,21
1595659347872,88,request-Price Range Wise Distribution of Products Across Brand,200,OK,Load filled widget tempalte 1-2,text,true,,133499,796,3,3,https://vortaapi.myntrainfo.com/api/mi/widget/5ec65b342e15ee1710bae268/slot/4,82,0,18
1595659347908,69,request-Price Range Wise Stock Status,200,OK,Load filled widget tempalte 1-5,text,true,,130963,796,2,2,https://vortaapi.myntrainfo.com/api/mi/widget/5ec65b342e15ee1710bae268/slot/5,64,0,18
1595659347955,72,request-Discount Range Wise Stock Status,200,OK,Load filled widget tempalte 1-6,text,true,,128693,796,2,2,https://vortaapi.myntrainfo.com/api/mi/widget/5ec65b342e15ee1710bae268/slot/6,67,0,21
1595659347978,64,request-Discount Range Wise Distribution of Product Attributes,200,OK,Load filled widget tempalte 1-5,text,true,,130197,796,2,2,https://vortaapi.myntrainfo.com/api/mi/widget/5ec65b342e15ee1710bae268/slot/7,59,0,15
1595659348028,65,request-Price Range Wise Distribution of Product Attributes,200,OK,Load filled widget tempalte 1-6,text,true,,130064,796,2,2,https://vortaapi.myntrainfo.com/api/mi/widget/5ec65b342e15ee1710bae268/slot/8,61,0,16
1595659348050,75,request-Stock Status Wise Distribution of Products Across Marketplaces,200,OK,Load filled widget tempalte 1-7,text,true,,127871,796,2,2,https://vortaapi.myntrainfo.com/api/mi/widget/5ec65b342e15ee1710bae268/slot/9,70,0,12
1595659348095,74,request-Discount Range Wise Stock Status,200,OK,Load filled widget tempalte 1-6,text,true,,129217,797,2,2,https://vortaapi.myntrainfo.com/api/mi/widget/5ec65b342e15ee1710bae268/slot/10,69,0,15
1595659348127,72,request-Price Range Wise Distribution of Products Across Marketplaces,200,OK,Load filled widget tempalte 1-7,text,true,,131219,796,2,2,https://vortaapi.myntrainfo.com/api/mi/widget/5ec65b342e15ee1710bae268/slot/1,67,0,15
1595659348170,73,request-Discount Range Wise Distribution of Products Across Marketplaces,200,OK,Load filled widget tempalte 1-6,text,true,,128457,796,2,2,https://vortaapi.myntrainfo.com/api/mi/widget/5ec65b342e15ee1710bae268/slot/2,68,0,19
1595659348200,72,request-Price Range Wise Stock Status,200,OK,Load filled widget tempalte 1-7,text,true,,128646,796,2,2,https://vortaapi.myntrainfo.com/api/mi/widget/5ec65b342e15ee1710bae268/slot/3,67,0,15
1595659348249,73,request-Price Range Wise Distribution of Products Across Brand,200,OK,Load filled widget tempalte 1-8,text,true,,133499,796,2,2,https://vortaapi.myntrainfo.com/api/mi/widget/5ec65b342e15ee1710bae268/slot/4,70,0,15
1595659348273,75,request-Price Range Wise Stock Status,200,OK,Load filled widget tempalte 1-7,text,true,,131619,796,2,2,https://vortaapi.myntrainfo.com/api/mi/widget/5ec65b342e15ee1710bae268/slot/5,72,0,13
1595659348323,71,request-Discount Range Wise Stock Status,200,OK,Load filled widget tempalte 1-8,text,true,,128693,796,2,2,https://vortaapi.myntrainfo.com/api/mi/widget/5ec65b342e15ee1710bae268/slot/6,65,0,11
1595659348349,60,request-Discount Range Wise Distribution of Product Attributes,200,OK,Load filled widget tempalte 1-7,text,true,,129541,796,2,2,https://vortaapi.myntrainfo.com/api/mi/widget/5ec65b342e15ee1710bae268/slot/7,57,0,11
1595659348395,69,request-Price Range Wise Distribution of Product Attributes,200,OK,Load filled widget tempalte 1-8,text,true,,130064,796,2,2,https://vortaapi.myntrainfo.com/api/mi/widget/5ec65b342e15ee1710bae268/slot/8,64,0,11
1595659348447,63,request-Stock Status Wise Distribution of Products Across Marketplaces,200,OK,Load filled widget tempalte 1-9,text,true,,127871,796,2,2,https://vortaapi.myntrainfo.com/api/mi/widget/5ec65b342e15ee1710bae268/slot/9,60,0,9
1595659348465,62,request-Discount Range Wise Stock Status,200,OK,Load filled widget tempalte 1-8,text,true,,129217,797,2,2,https://vortaapi.myntrainfo.com/api/mi/widget/5ec65b342e15ee1710bae268/slot/10,59,0,9
1595659348511,63,request-Price Range Wise Distribution of Products Across Marketplaces,200,OK,Load filled widget tempalte 1-9,text,true,,131219,796,2,2,https://vortaapi.myntrainfo.com/api/mi/widget/5ec65b342e15ee1710bae268/slot/1,60,0,12
1595659348528,73,request-Discount Range Wise Distribution of Products Across Marketplaces,200,OK,Load filled widget tempalte 1-8,text,true,,129113,796,2,2,https://vortaapi.myntrainfo.com/api/mi/widget/5ec65b342e15ee1710bae268/slot/2,70,0,21
1595659348575,70,request-Price Range Wise Stock Status,200,OK,Load filled widget tempalte 1-9,text,true,,128646,796,1,1,https://vortaapi.myntrainfo.com/api/mi/widget/5ec65b342e15ee1710bae268/slot/3,67,0,15
1595659348657,59,request-Price Range Wise Stock Status,200,OK,Load filled widget tempalte 1-10,text,true,,131619,796,2,2,https://vortaapi.myntrainfo.com/api/mi/widget/5ec65b342e15ee1710bae268/slot/5,56,0,10
1595659348647,72,request-Price Range Wise Distribution of Products Across Brand,200,OK,Load filled widget tempalte 1-9,text,true,,133499,796,2,2,https://vortaapi.myntrainfo.com/api/mi/widget/5ec65b342e15ee1710bae268/slot/4,67,0,14
1595659348717,70,request-Discount Range Wise Stock Status,200,OK,Load filled widget tempalte 1-10,text,true,,128693,796,2,2,https://vortaapi.myntrainfo.com/api/mi/widget/5ec65b342e15ee1710bae268/slot/6,67,0,15
1595659348720,92,request-Discount Range Wise Distribution of Product Attributes,200,OK,Load filled widget tempalte 1-9,text,true,,129541,796,2,2,https://vortaapi.myntrainfo.com/api/mi/widget/5ec65b342e15ee1710bae268/slot/7,89,0,15
1595659348788,77,request-Price Range Wise Distribution of Product Attributes,200,OK,Load filled widget tempalte 1-10,text,true,,130064,796,1,1,https://vortaapi.myntrainfo.com/api/mi/widget/5ec65b342e15ee1710bae268/slot/8,74,0,11
1595659348866,61,request-Stock Status Wise Distribution of Products Across Marketplaces,200,OK,Load filled widget tempalte 1-10,text,true,,128527,796,1,1,https://vortaapi.myntrainfo.com/api/mi/widget/5ec65b342e15ee1710bae268/slot/9,58,0,13
1595659348929,59,request-Discount Range Wise Stock Status,200,OK,Load filled widget tempalte 1-10,text,true,,129217,797,1,1,https://vortaapi.myntrainfo.com/api/mi/widget/5ec65b342e15ee1710bae268/slot/10,56,0,12
